[
    {
        "path": "404.html",
        "type": "file",
        "md5": "9c1abfd6dd89c4bd39b21a16a5329f18"
    },
    {
        "path": "/assets/css/editor.css",
        "type": "file",
        "md5": "e5909a88ba1158a79ba2dbf82d6b2d86"
    },
    {
        "path": "/assets/css/main.css",
        "type": "file",
        "md5": "07dec0ca02878ed7a8c9bf7e9dc2143b"
    },
    {
        "path": "/assets/css/photoswipe.css",
        "type": "file",
        "md5": "ffb247881cd6f611d007fd4a96b7b16a"
    },
    {
        "path": "/assets/css/style.css",
        "type": "file",
        "md5": "c26b612132e78ac8627c77cd5a00fa76"
    },
    {
        "path": "/assets/js/photoswipe-ui-default.min.js",
        "type": "file",
        "md5": "d067f0883540b1ddda0e2c9ad1b14260"
    },
    {
        "path": "/assets/js/photoswipe.min.js",
        "type": "file",
        "md5": "017385b552f7e0d979e2e2fe6f324015"
    },
    {
        "path": "/assets/js/scripts.js",
        "type": "file",
        "md5": "3d749dabb6841fddd58797c30636fcf0"
    },
    {
        "path": "/assets/js/scripts.min.js",
        "type": "file",
        "md5": "225cfb4a7e546edee710c4f1208e81e2"
    },
    {
        "path": "/assets/js/svg-fix.js",
        "type": "file",
        "md5": "7c0d2bb7276904b382e80bf2d85e8a96"
    },
    {
        "path": "/assets/js/svg2js.js",
        "type": "file",
        "md5": "cb8ea52fee35e34d03de2c5f7b32b0c5"
    },
    {
        "path": "/assets/svg/gallery-icons-dark.svg",
        "type": "file",
        "md5": "452594838e74a3df91ad4a20cf53c831"
    },
    {
        "path": "/assets/svg/gallery-icons-light.svg",
        "type": "file",
        "md5": "ca77079e0fe8270a7447d7f1f5d543b0"
    },
    {
        "path": "/assets/svg/svg-map.svg",
        "type": "file",
        "md5": "9c4d7b73d87263bf1aaca2be4381ffa1"
    },
    {
        "path": "/authors/aeches/index.html",
        "type": "file",
        "md5": "f3cef9eb18227066aaab74729727e735"
    },
    {
        "path": "empire-theatre-resources.html",
        "type": "file",
        "md5": "bf4851cb7dcccbc4b78b2f705c559965"
    },
    {
        "path": "feed.json",
        "type": "file",
        "md5": "2a37575a9b1e555b2451392d34086c2b"
    },
    {
        "path": "feed.xml",
        "type": "file",
        "md5": "a9c877cc9478c42d36b09e8f7b5d3244"
    },
    {
        "path": "files.publii.json",
        "type": "file",
        "md5": "eafc4fd1303fbb308584073fb29db980"
    },
    {
        "path": "index.html",
        "type": "file",
        "md5": "e4ff261f38edd2758f3fc88f217957ee"
    },
    {
        "path": "/media/posts/1/ContemporaryWallMountedBulletinBoard.jpg",
        "type": "file",
        "md5": "f5b6000bb498feb7bc78140e2a8db417"
    },
    {
        "path": "/media/posts/1/responsive/ContemporaryWallMountedBulletinBoard-2xl.jpg",
        "type": "file",
        "md5": "bc144f0bce969974f04ee93aa297a739"
    },
    {
        "path": "/media/posts/1/responsive/ContemporaryWallMountedBulletinBoard-lg.jpg",
        "type": "file",
        "md5": "bc144f0bce969974f04ee93aa297a739"
    },
    {
        "path": "/media/posts/1/responsive/ContemporaryWallMountedBulletinBoard-md.jpg",
        "type": "file",
        "md5": "75b1f54eaa3bdf375aa7ef7868631705"
    },
    {
        "path": "/media/posts/1/responsive/ContemporaryWallMountedBulletinBoard-sm.jpg",
        "type": "file",
        "md5": "a091145249d4bcaad331044124aff413"
    },
    {
        "path": "/media/posts/1/responsive/ContemporaryWallMountedBulletinBoard-xl.jpg",
        "type": "file",
        "md5": "bc144f0bce969974f04ee93aa297a739"
    },
    {
        "path": "/media/posts/1/responsive/ContemporaryWallMountedBulletinBoard-xs.jpg",
        "type": "file",
        "md5": "973b68920b543a6f68e54eb3b68df841"
    },
    {
        "path": "/media/posts/1/trello.svg",
        "type": "file",
        "md5": "43217a605f9f6ca978201b9d96e9280b"
    },
    {
        "path": "/media/posts/2/best-to-list-apps-featured-image.jpg",
        "type": "file",
        "md5": "5ffee8216edefef13781747c216a1744"
    },
    {
        "path": "/media/posts/2/responsive/best-to-list-apps-featured-image-2xl.jpg",
        "type": "file",
        "md5": "547c277eb7620b55970da9c12576c26a"
    },
    {
        "path": "/media/posts/2/responsive/best-to-list-apps-featured-image-lg.jpg",
        "type": "file",
        "md5": "01ba9fe0bbd35f3a27560898b512f6c0"
    },
    {
        "path": "/media/posts/2/responsive/best-to-list-apps-featured-image-md.jpg",
        "type": "file",
        "md5": "c7c5596f558b1ace62d5251033ad081f"
    },
    {
        "path": "/media/posts/2/responsive/best-to-list-apps-featured-image-sm.jpg",
        "type": "file",
        "md5": "5963052fdc320edefc44a882f0087d44"
    },
    {
        "path": "/media/posts/2/responsive/best-to-list-apps-featured-image-xl.jpg",
        "type": "file",
        "md5": "547c277eb7620b55970da9c12576c26a"
    },
    {
        "path": "/media/posts/2/responsive/best-to-list-apps-featured-image-xs.jpg",
        "type": "file",
        "md5": "a557b4bdcb7e82b12d85549655259a9a"
    },
    {
        "path": "/media/posts/3/maxresdefault.jpg",
        "type": "file",
        "md5": "be210ce2b2d5465a011eb2e71e2b2532"
    },
    {
        "path": "/media/posts/3/responsive/maxresdefault-2xl.jpg",
        "type": "file",
        "md5": "bc24c0130fbfceeb94fc53ab9c1ff3e3"
    },
    {
        "path": "/media/posts/3/responsive/maxresdefault-lg.jpg",
        "type": "file",
        "md5": "3bea06348ebb0ff5fcb56f4c78a92178"
    },
    {
        "path": "/media/posts/3/responsive/maxresdefault-md.jpg",
        "type": "file",
        "md5": "6c9836d5729595312c814566a5b5b68c"
    },
    {
        "path": "/media/posts/3/responsive/maxresdefault-sm.jpg",
        "type": "file",
        "md5": "316570291f47af156de7bcf99abb488c"
    },
    {
        "path": "/media/posts/3/responsive/maxresdefault-xl.jpg",
        "type": "file",
        "md5": "bc24c0130fbfceeb94fc53ab9c1ff3e3"
    },
    {
        "path": "/media/posts/3/responsive/maxresdefault-xs.jpg",
        "type": "file",
        "md5": "8d60899702732e16e16c2fcda69ebcdc"
    },
    {
        "path": "/media/posts/4/a055e4c0d1c4f714586aabc4d4d24186.jpg",
        "type": "file",
        "md5": "fcbd441a81318be279970c39899837f6"
    },
    {
        "path": "/media/posts/4/responsive/a055e4c0d1c4f714586aabc4d4d24186-2xl.jpg",
        "type": "file",
        "md5": "5ae46c7c6dfdbb2a1a4747c7ce4b517f"
    },
    {
        "path": "/media/posts/4/responsive/a055e4c0d1c4f714586aabc4d4d24186-lg.jpg",
        "type": "file",
        "md5": "5ae46c7c6dfdbb2a1a4747c7ce4b517f"
    },
    {
        "path": "/media/posts/4/responsive/a055e4c0d1c4f714586aabc4d4d24186-md.jpg",
        "type": "file",
        "md5": "5ae46c7c6dfdbb2a1a4747c7ce4b517f"
    },
    {
        "path": "/media/posts/4/responsive/a055e4c0d1c4f714586aabc4d4d24186-sm.jpg",
        "type": "file",
        "md5": "9f52d1b0fb2112691885bb1bacf92642"
    },
    {
        "path": "/media/posts/4/responsive/a055e4c0d1c4f714586aabc4d4d24186-xl.jpg",
        "type": "file",
        "md5": "5ae46c7c6dfdbb2a1a4747c7ce4b517f"
    },
    {
        "path": "/media/posts/4/responsive/a055e4c0d1c4f714586aabc4d4d24186-xs.jpg",
        "type": "file",
        "md5": "e9364bbfbdb318cc28a54dec8e7e893a"
    },
    {
        "path": "miscellaneous-documents.html",
        "type": "file",
        "md5": "177a69ac8e575f1c0579676f95370518"
    },
    {
        "path": "mycenter-information.html",
        "type": "file",
        "md5": "0016b1f80d02af1f37abf5d3cc894224"
    },
    {
        "path": "/resources/index.html",
        "type": "file",
        "md5": "3974b3d5011c270ffac11c76c64c619e"
    },
    {
        "path": "search.html",
        "type": "file",
        "md5": "1f0040947e795aa9d88302d9f66e6eb8"
    },
    {
        "path": "sitemap.xml",
        "type": "file",
        "md5": "f63e376597ad87f13ea474b994c2cba2"
    },
    {
        "path": "sitemap.xsl",
        "type": "file",
        "md5": "51a7bcec43fa1ef0366100d5c2edbe75"
    },
    {
        "path": "/trello/index.html",
        "type": "file",
        "md5": "6169a75b383520921e1b78c76b6cb186"
    },
    {
        "path": "trello-calender.html",
        "type": "file",
        "md5": "f1faff5226157b70b107af9ef623a1d7"
    }
]